<?xml version="1.0" encoding="UTF-8"?>
<svg xmlns="http://www.w3.org/2000/svg" viewBox="0 0 64 64" width="512" height="512">
    <g id="Outline">
        <path d="M61,46a1,1,0,0,0,1-1V37a1,1,0,0,0-1-1H47V30h4a1,1,0,0,0,1-1V21a1,1,0,0,0-2,0v7H40V25.653l5.255-.48a3,3,0,0,0,2.325-4.487l-.95-1.646a2.983,2.983,0,0,0,1.177-2.826l-.383-2.651a.993.993,0,0,1,.49-1.007l.56-.324a2.976,2.976,0,0,0,1.821,1.4,3.025,3.025,0,0,0,.781.1,2.986,2.986,0,0,0,1.495-.4l6.929-4h0a3,3,0,0,0,1.1-4.1L59.6,3.5a3,3,0,0,0-4.1-1.1l-6.93,4a3,3,0,0,0-1.1,4.1l-.56.323a2.987,2.987,0,0,0-1.47,3.026l.382,2.65a.99.99,0,0,1-.219.77l-.9-1.561a3,3,0,0,0-5.049-.231L36.464,20H36V13a1,1,0,0,0-1-1H28V5a1,1,0,0,0-1-1H23a1,1,0,0,0,0,2h3v6H17.736A7.018,7.018,0,0,0,16,10.264V6h3a1,1,0,0,0,0-2H3A1,1,0,0,0,2,5V17a1,1,0,0,0,2,0V11H8A1,1,0,0,0,8,9H4V6H14V9.3A6.956,6.956,0,0,0,12,9a1,1,0,0,0,0,2,5.006,5.006,0,0,1,5,5v3.5A6.508,6.508,0,0,0,23.5,26,4.505,4.505,0,0,1,28,30.5v.941a1,1,0,0,0,2,0V30.5c0-.169-.013-.334-.025-.5H33v6H31.328a8.628,8.628,0,0,1-.716-1.373,1,1,0,1,0-1.855.746A10.515,10.515,0,0,0,38.56,42a7.56,7.56,0,0,1,7.412,9.042L44.02,60.8A1,1,0,0,0,45,62h6a1,1,0,0,0,1-1V54h8v6H55a1,1,0,0,0,0,2h6a1,1,0,0,0,1-1V53a1,1,0,0,0-1-1H58V46ZM49.571,8.134l6.929-4A.99.99,0,0,1,57,4a1.017,1.017,0,0,1,.261.034,1,1,0,0,1,.606.466l1,1.733a.99.99,0,0,1,.1.758A1,1,0,0,1,58.5,7.6h0l-6.929,4a1,1,0,0,1-.759.1.992.992,0,0,1-.606-.466l-1-1.732A1,1,0,0,1,49.571,8.134ZM60,44H52V38h8ZM37.336,22.233l3.956-5.6a.98.98,0,0,1,.812-.423h.049a.983.983,0,0,1,.821.5l.937,1.623-1.732,1a1,1,0,0,0,1,1.733l1.732-1,.937,1.623a1,1,0,0,1-.775,1.5h0l-6.83.624a1,1,0,0,1-.907-1.573ZM34,14v6H24V14ZM22,14v6H19.051A4.342,4.342,0,0,1,19,19.5V16a6.956,6.956,0,0,0-.3-2Zm-2.238,8H26v2.5a6.464,6.464,0,0,0-2.5-.5A4.5,4.5,0,0,1,19.762,22ZM29.5,28A6.53,6.53,0,0,0,28,25.821V22h7.267A2.978,2.978,0,0,0,38,25.792V28ZM35,30H45v6H35Zm3,9.958A8.491,8.491,0,0,1,33.078,38H38Zm2,.164V38H50v6H46.318c-.12-.168-.234-.34-.366-.5A9.507,9.507,0,0,0,40,40.122ZM46.22,60l1.2-6H50v6ZM56,52H47.819l.114-.566A9.522,9.522,0,0,0,47.423,46H56Z"/>
        <path d="M37,60H3a1,1,0,0,0,0,2H37a1,1,0,0,0,0-2Z"/>
    </g>
</svg>
